{
  "location": {
    "name": "Bicas",
    "coordinates": {
      "lat": "38.461996",
      "lon": "-9.193270"
    },
    "picture": null,
    "locationType": "dynamic",
    "locationRules": {
      "primaryWindDirectionRange": {
        "minimumDirection": 290,
        "maximumDirection": 320
      },
      "primaryWindSpeedRange": {
        "minimumDirection": 20,
        "maximumDirection": 30
      },
      "extendedWindDirectionRange": {
        "minimumDirection": 270,
        "maximumDirection": 3335
      },
      "extendedWindSpeedRange": {
        "minimumDirection": 18,
        "maximumDirection": 30
      }
    }
  },
  "forecastDay": [
    {
      "date": "2021-12-04",
      "sunrise": "07:38:28",
      "sunset": "17:38:28",
      "hours": [7, 8, 9, 10, 11, 12, 13, 14, 15, 16, 17],
      "windSpeed": [4.6, 6.6, 8.9, 13.4, 19.5, 17.4, 21.2, 21.0, 20.7, 18.4, 15.9],
      "windGust": [4.6, 6.6, 8.9, 13.4, 19.5, 17.4, 21.2, 21.0, 20.7, 18.4, 15.9],
      "windDirection": [32, 34, 34, 31, 27, 27, 26, 26, 27, 29, 29],
      "precipitation": null,
      "precipProb": null,
      "humidity": null,
      "cloudCover": null,
      "visibility": null
    },
    {
      "date": "2021-12-05",
      "sunrise": "07:39:28",
      "sunset": "17:36:28",
      "hours": [7, 8, 9, 10, 11, 12, 13, 14, 15, 16, 17],
      "windSpeed": [4.6, 6.6, 8.9, 13.4, 19.5, 17.4, 21.2, 21.0, 20.7, 18.4, 15.9],
      "windGust": [4.6, 6.6, 8.9, 13.4, 19.5, 17.4, 21.2, 21.0, 20.7, 18.4, 15.9],
      "windDirection": [32, 34, 34, 31, 27, 27, 26, 26, 27, 29, 29],
      "precipitation": null,
      "precipProb": null,
      "humidity": null,
      "cloudCover": null,
      "visibility": null
    }
  ]
}